…
    ## Warning: glm.fit: fitted probabilities numerically 0 or 1 occurred

    ## Warning: glm.fit: fitted probabilities numerically 0 or 1 occurred

    ## Warning: glm.fit: fitted probabilities numerically 0 or 1 occurred

    ## Warning in regularize.values(x, y, ties, missing(ties), na.rm = na.rm):
    ## collapsing to unique 'x' values

``` r
all_result
```

    ## # A tibble: 47 × 5
    ##    city_states     term              OR conf_low conf_high
    ##    <chr>           <chr>          <dbl>    <dbl>     <dbl>
    ##  1 Albuquerque, NM victim_sexMale 1.73     0.808     3.70 
    ##  2 Atlanta, GA     victim_sexMale 1.00     0.680     1.46 
    ##  3 Baltimore, MD   victim_sexMale 0.426    0.324     0.558
    ##  4 Baton Rouge, LA victim_sexMale 0.381    0.204     0.684
    ##  5 Birmingham, AL  victim_sexMale 0.873    0.573     1.32 
    ##  6 Boston, MA      victim_sexMale 0.672    0.352     1.27 
    ##  7 Buffalo, NY     victim_sexMale 0.522    0.289     0.939
    ##  8 Charlotte, NC   victim_sexMale 0.884    0.551     1.39 
    ##  9 Chicago, IL     victim_sexMale 0.410    0.336     0.501
    ## 10 Cincinnati, OH  victim_sexMale 0.400    0.231     0.667
    ## # … with 37 more rows
…
